83944,199.3786754272559,143.2052394127308,148.0363096589752,125.2309595029977,1.045335998748602,1
41989,191.8531077765801,102.5442949528522,141.5887765213941,119.8078897247692,0.9888492943037684,1
94365,207.2266056086006,36.44648205029367,157.4992910809086,131.7500887097457,1.09559924203521,1
93464,203.4425081424164,91.47601189936653,152.8712061235762,128.5861359293158,1.071569290992198,1
57985,194.2367744398017,9.071700640962508,145.5840706287164,122.1414633727435,1.000578523678859,1
16465,208.5735015259991,27.68127539647105,158.9478567151441,132.8135865552408,1.104779426736802,1
26813,183.5184100926074,32.49557635765999,134.9074255742924,113.9466070068749,0.9248397382758919,1
80055,180.5131311696182,94.34536417949276,130.8986208819831,111.3287589096565,0.9068069449058118,1
12855,176.5465913842933,87.07707245424244,127.2401894532959,108.3883784589545,0.8778548806887894,1
8248,189.6286659200924,90.16771623050553,139.6895564001589,118.2069859567501,0.9721319603922562,1
22027,179.7498139553679,133.2030142102604,129.4553109749506,110.5297997844161,0.903568076470432,1
79717,201.0395918947049,97.97980124273977,150.4546419996205,126.7417042375731,1.054662225531684,1
8733,198.5166349623462,121.0054802417608,147.6199070844969,124.7113387334872,1.037849074884709,1
84441,185.7208487703624,70.73257536313776,136.3106994794703,115.3812148287804,0.9428972782919091,1
89103,197.2545054772899,24.85372099430126,148.1791157086657,124.3191267959746,1.023199230753601,1
5231,194.6395365112077,45.8118006474328,145.2943899424443,122.2315497713015,1.005604440880826,1
92701,174.6059572262862,57.13023587722152,125.934949831111,107.1026169364356,0.862160843645932,1
57806,198.433300528017,72.80305406613492,148.4254513569006,124.9278078719961,1.034456586927724,1
47753,204.2130207189243,53.09414933963532,154.3126570475096,129.3877501253779,1.074887484247828,1
13711,168.0384229196361,144.5277089250683,118.0515525953658,101.6583431098937,0.8199854713369228,1
19146,186.8756405914675,12.04243996266693,138.4924611721005,116.589371738492,0.947802796451351,1
83256,194.9915530670167,31.76595073997058,145.8888526195472,122.577569724811,1.007322577463439,1
79293,203.7185290135442,86.75500746120235,153.2217734676198,128.82101620545,1.073281123351887,1
59275,197.145756924594,5.071320835838648,148.4384473076614,124.3519132050154,1.021270729794427,1
89304,185.244835323126,228.9039390081622,132.9509168074212,114.1073638456332,0.9486385456243758,1
13650,208.1652245902218,24.41574209401934,158.6175241671756,132.5255101635018,1.101653513310275,1
93894,197.0497691364877,187.5608072009186,144.9953709964465,123.2229856939084,1.031154586728837,1
44657,195.2984616740345,82.18719953748645,145.2562920712786,122.5163589145245,1.012451779925433,1
49643,209.973069340669,10.61160636451282,160.5992819963718,133.9647779587995,1.11385727582651,1
23115,193.3845825850204,17.73964636383264,144.6102154221474,121.450500238001,0.994951057793719,1
